{
    "paths":{
        "source": {
            "js": "./src/js/"
        },
        "build": {
            "js": "./build/js/"
        },
        "dist": {
            "js": "./dist/js/"
        }
    },
    "babel": {
        "presets": ["es2015"]
    },
    "clean": [
        "./build",
        "./dist"
    ],
    "output": {
        "js": "app.js"
    }
}